results/notch_filter.vcd
$date
	Sat Nov 29 19:35:19 2025
$end
$version
	Icarus Verilog
$end
$timescale
	1ps
$end
$scope module tb_notch_filter $end
$var wire 1 ! valid_o $end
$var wire 16 " data_o [15:0] $end
$var parameter 32 # DATA_WIDTH $end
$var real 1 $ FS $end
$var parameter 32 % NUM_SAMPLES $end
$var reg 1 & clk $end
$var reg 16 ' data_i [15:0] $end
$var reg 1 ( rst_n $end
$var reg 1 ) valid_i $end
$var integer 32 * fd [31:0] $end
$var integer 32 + i [31:0] $end
$var real 1 , t $end
$var integer 32 - temp_val [31:0] $end
$var real 1 . val_1_0m $end
$var real 1 / val_2_4m $end
$var real 1 0 val_total $end
$scope module u_dut $end
$var wire 1 & clk $end
$var wire 16 1 data_i [15:0] $end
$var wire 1 ( rst_n $end
$var wire 1 ) valid_i $end
$var parameter 16 2 A1 $end
$var parameter 16 3 A2 $end
$var parameter 16 4 B0 $end
$var parameter 16 5 B1 $end
$var parameter 16 6 B2 $end
$var parameter 32 7 DATA_WIDTH $end
$var reg 16 8 data_o [15:0] $end
$var reg 32 9 s1 [31:0] $end
$var reg 32 : s2 [31:0] $end
$var reg 1 ; state $end
$var reg 1 ! valid_o $end
$var reg 16 < x_reg [15:0] $end
$var reg 32 = y_reg [31:0] $end
$upscope $end
$upscope $end
$enddefinitions $end
$comment Show the parameter values. $end
$dumpall
b10000 7
b11110101101101 6
b110001101100011 5
b11110101101101 4
b11101011011010 3
b110001101100011 2
b100000000000 %
r6000000 $
b10000 #
$end
#0
$dumpvars
b0 =
b0 <
0;
b0 :
b0 9
b0 8
b0 1
r0 0
r0 /
r0 .
b0 -
r0 ,
bx +
b10000000000000000000000000000011 *
0)
0(
b0 '
0&
b0 "
0!
$end
#5000
1&
#10000
0&
#15000
1&
#20000
0&
#25000
1&
#30000
0&
#35000
1&
#40000
0&
#45000
1&
#50000
0&
#55000
1&
#60000
0&
#65000
1&
#70000
0&
#75000
1&
#80000
0&
#85000
1&
#90000
0&
#95000
1(
1&
#100000
0&
#105000
1&
#110000
0&
#115000
1&
#120000
0&
#125000
1&
#130000
0&
#135000
1&
#140000
0&
#145000
1&
#150000
0&
#155000
1&
#160000
0&
#165000
1&
#170000
0&
#175000
1&
#180000
0&
#185000
1&
#190000
0&
#195000
b101000111101 '
b101000111101 1
1)
b101000111101 -
r0.2 0
b0 +
1&
#200000
0&
#205000
1;
b10011101001110010011111001 =
b101000111101 <
0)
1&
#210000
0&
#215000
0;
b1100101011100101001011 :
b1010010010011011111110 9
1!
b100111010011 "
b100111010011 8
1&
#220000
0&
#225000
0!
1&
#230000
0&
#235000
b101010010101100 '
b101010010101100 1
1)
b101010010101100 -
r1.653811931249674 0
r0.5877869697305396 /
r0.8660249615191343 .
r1.666666666666667e-07 ,
b1 +
1&
#240000
0&
#245000
1;
b10100011110100011000000111010 =
b101010010101100 <
0)
1&
#250000
0&
#255000
0;
b1011111001011100110101100 :
b1010001011001011100010111 9
1!
b101000111101000 "
b101000111101000 8
1&
#260000
0&
#265000
0!
1&
#270000
0&
#275000
b10111100010 '
b10111100010 1
1)
b10111100010 -
r0.1149684600194856 0
r-0.9510578282935289 /
r0.8660262883130145 .
r3.333333333333334e-07 ,
b10 +
1&
#280000
0&
#285000
1;
b10101011101111001001010001 =
b10111100010 <
0)
1&
#290000
0&
#295000
0;
b11111110111100011101100111111100 :
b11111111100110101110111011000001 9
1!
b101010111011 "
b101010111011 8
1&
#300000
0&
#305000
0!
1&
#310000
0&
#315000
b11101011101110 '
b11101011101110 1
1)
b11101011101110 -
r1.151057201855239 0
r0.9510545482654452 /
r2.65358979335273e-06 .
r5e-07 ,
b11 +
1&
#320000
0&
#325000
1;
b1101101111101011110000010111 =
b11101011101110 <
0)
1&
#330000
0&
#335000
0;
b1100000000101100001110010 :
b11110101011110101011000 9
1!
b11011011111010 "
b11011011111010 8
1&
#340000
0&
#345000
0!
1&
#350000
0&
#355000
b1011111111001111 '
b1011111111001111 1
1)
b11111111111111111011111111001111 -
r-1.253802017232875 0
r-0.5877783825137183 /
r-0.8660236347191561 .
r6.666666666666667e-07 ,
b100 +
1&
#360000
0&
#365000
1;
b11110001000100111011101101111011 =
b1011111111001111 <
0)
1&
#370000
0&
#375000
0;
b11111110010100100010011110110111 :
b11111111110000010111111001010101 9
1!
b1100010001001110 "
b1100010001001110 8
1&
#380000
0&
#385000
0!
1&
#390000
0&
#395000
b1101110111100111 '
b1101110111100111 1
1)
b11111111111111111101110111100111 -
r-0.6660382294599699 0
r-1.061435917322407e-05 /
r-0.8660276151007966 .
r8.333333333333333e-07 ,
b101 +
1&
#400000
0&
#405000
1;
b11110111100100110000010010110000 =
b1101110111100111 <
0)
1&
#410000
0&
#415000
0;
b11111111100100010000000110100011 :
b11111110001010101111000110101000 9
1!
b1101111001001100 "
b1101111001001100 8
1&
#420000
0&
#425000
0!
1&
#430000
0&
#435000
b10100001010101 '
b10100001010101 1
1)
b10100001010101 -
r0.7877902497015523 0
r0.5877955568811389 /
r-5.307179586686775e-06 .
r1e-06 ,
b110 +
1&
#440000
0&
#445000
1;
b111110110000101111011011001 =
b10100001010101 <
0)
1&
#450000
0&
#455000
0;
b10011101101011101010010111 :
b11000010101101001111111111 9
1!
b1111101100001 "
b1111101100001 8
1&
#460000
0&
#465000
0!
1&
#470000
0&
#475000
b10111100010 '
b10111100010 1
1)
b10111100010 -
r0.1149611996986158 0
r-0.9510611082144632 /
r0.8660223079130791 .
r1.166666666666667e-06 ,
b111 +
1&
#480000
0&
#485000
1;
b100011101000010111100111001 =
b10111100010 <
0)
1&
#490000
0&
#495000
0;
b11111101010100010001000000011010 :
b11111101110101010001001110001101 9
1!
b1000111010000 "
b1000111010000 8
1&
#500000
0&
#505000
0!
1&
#510000
0&
#515000
b110011101000101 '
b110011101000101 1
1)
b110011101000101 -
r2.017080210012692 0
r0.9510512681302116 /
r0.8660289418824803 .
r1.333333333333333e-06 ,
b1000 +
1&
#520000
0&
#525000
1;
b10110100111000111110011101110 =
b110011101000101 <
0)
1&
#530000
0&
#535000
0;
b11111111001100101100100111 :
b10010011000000001000010110 9
1!
b101101001110001 "
b101101001110001 8
1&
#540000
0&
#545000
0!
1&
#550000
0&
#555000
b1110110000100110 '
b1110110000100110 1
1)
b11111111111111111110110000100110 -
r-0.3877618344612964 0
r-0.5877697952306755 /
r7.960769379095271e-06 .
r1.5e-06 ,
b1001 +
1&
#560000
0&
#565000
1;
b11111101100010001001110001000100 =
b1110110000100110 <
0)
1&
#570000
0&
#575000
0;
b11111101100000010100110100111010 :
b111000111101010110011 9
1!
b1111011000100010 "
b1111011000100010 8
1&
#580000
0&
#585000
0!
1&
#590000
0&
#595000
b1101110111100111 '
b1101110111100111 1
1)
b11111111111111111101110111100111 -
r-0.66604220981925 0
r-2.122871834525227e-05 /
r-0.8660209811009048 .
r1.666666666666667e-06 ,
b1010 +
1&
#600000
0&
#605000
1;
b11110111111011100000000100001110 =
b1101110111100111 <
0)
1&
#610000
0&
#615000
0;
b11111111001111010101001110101011 :
b11111100110011001100011001100111 9
1!
b1101111110111000 "
b1101111110111000 8
1&
#620000
0&
#625000
0!
1&
#630000
0&
#635000
b1111101111111111 '
b1111101111111111 1
1)
b11111111111111111111101111111111 -
r-0.07822612469255164 0
r0.5878041439655147 /
r-0.8660302686580664 .
r1.833333333333333e-06 ,
b1011 +
1&
#640000
0&
#645000
1;
b11111011110101101101010011111010 =
b1111101111111111 <
0)
1&
#650000
0&
#655000
0;
b10110111011001110100010101 :
b100001001011010001100010111 9
1!
b1110111101011011 "
b1110111101011011 8
1&
#660000
0&
#665000
0!
1&
#670000
0&
#675000
b1101100110001100 '
b1101100110001100 1
1)
b11111111111111111101100110001100 -
r-0.7510750023874179 0
r-0.9510643880282447 /
r-1.061435917322407e-05 .
r2e-06 ,
b1100 +
1&
#680000
0&
#685000
1;
b11111010111010111001111110110011 =
b1101100110001100 <
0)
1&
#690000
0&
#695000
0;
b11111011011100011101111001110000 :
b11111011110100110111001111101111 9
1!
b1110101110101110 "
b1110101110101110 8
1&
#700000
0&
#705000
0!
1&
#710000
0&
#715000
b110011101000101 '
b110011101000101 1
1)
b110011101000101 -
r2.017067642170459 0
r0.9510479878878275 /
r0.8660196542826315 .
r2.166666666666667e-06 ,
b1101 +
1&
#720000
0&
#725000
1;
b10100100110101101110101010000 =
b110011101000101 <
0)
1&
#730000
0&
#735000
0;
b101110101001111110001000011 :
b11100010100011110010111110 9
1!
b101001001101011 "
b101001001101011 8
1&
#740000
0&
#745000
0!
1&
#750000
0&
#755000
b1100001111100 '
b1100001111100 1
1)
b1100001111100 -
r0.4782703875461499 0
r-0.5877612078814046 /
r0.8660315954275545 .
r2.333333333333333e-06 ,
b1110 +
1&
#760000
0&
#765000
1;
b1001011010100011010110001010 =
b1100001111100 <
0)
1&
#770000
0&
#775000
0;
b11111101001101111101011110111100 :
b101101111110000000111111 9
1!
b10010110101000 "
b10010110101000 8
1&
#780000
0&
#785000
0!
1&
#790000
0&
#795000
b101000111101 '
b101000111101 1
1)
b101000111101 -
r0.1999814248714524 0
r-3.184307751133603e-05 /
r1.326794896372541e-05 .
r2.5e-06 ,
b1111 +
1&
#800000
0&
#805000
1;
b11001011001100010100111000 =
b101000111101 <
0)
1&
#810000
0&
#815000
0;
b11111111100010011000011010001011 :
b11111100010000110100001000011010 9
1!
b110010110011 "
b110010110011 8
1&
#820000
0&
#825000
0!
1&
#830000
0&
#835000
b1111101111111111 '
b1111101111111111 1
1)
b11111111111111111111101111111111 -
r-0.0782055964745989 0
r0.5878127309836629 /
r-0.8660183274582619 .
r2.666666666666667e-06 ,
b10000 +
1&
#840000
0&
#845000
1;
b11111011010011010101000010101101 =
b1111101111111111 <
0)
1&
#850000
0&
#855000
0;
b11010111000000110101110001 :
b101010001110101110010101001 9
1!
b1110110100110101 "
b1110110100110101 8
1&
#860000
0&
#865000
0!
1&
#870000
0&
#875000
b1010110100110101 '
b1010110100110101 1
1)
b11111111111111111010110100110101 -
r-1.617100589925818 0
r-0.9510676677348747 /
r-0.8660329221909435 .
r2.833333333333333e-06 ,
b10001 +
1&
#880000
0&
#885000
1;
b11110001011010011011110100111010 =
b1010110100110101 <
0)
1&
#890000
0&
#895000
0;
b11111001100011000111010100110101 :
b11111001110111101110011010111110 9
1!
b1100010110100110 "
b1100010110100110 8
1&
#900000
0&
#905000
0!
1&
#910000
0&
#915000
b11101011101110 '
b11101011101110 1
1)
b11101011101110 -
r1.151028785999537 0
r0.9510447075382951 /
r-1.592153875768604e-05 .
r3e-06 ,
b10010 +
1&
#920000
0&
#925000
1;
b1000000000101011010000010100 =
b11101011101110 <
0)
1&
#930000
0&
#935000
0;
b110110001100100000011010010 :
b11111111010000011101100001 9
1!
b10000000001010 "
b10000000001010 8
1&
#940000
0&
#945000
0!
1&
#950000
0&
#955000
b1100001111100 '
b1100001111100 1
1)
b1100001111100 -
r0.4782643801618689 0
r-0.5877526204659225 /
r0.8660170006277914 .
r3.166666666666667e-06 ,
b10011 +
1&
#960000
0&
#965000
1;
b1001110111010000000000101101 =
b1100001111100 <
0)
1&
#970000
0&
#975000
0;
b11111100110011100001100000000100 :
b111101101000111011101010 9
1!
b10011101110100 "
b10011101110100 8
1&
#980000
0&
#985000
0!
1&
#990000
0&
#995000
b11011010010011 '
b11011010010011 1
1)
b11011010010011 -
r1.065991791511554 0
r-4.245743668093764e-05 /
r0.8660342489482343 .
r3.333333333333333e-06 ,
b10100 +
1&
#1000000
0&
#1005000
1;
b1110000011101101001010000001 =
b11011010010011 <
0)
1&
#1010000
0&
#1015000
0;
b1010110000001101011001 :
b11111100001010010111110000001100 9
1!
b11100000111011 "
b11100000111011 8
1&
#1020000
0&
#1025000
0!
1&
#1030000
0&
#1035000
b10100001010110 '
b10100001010110 1
1)
b10100001010110 -
r0.7878398930641446 0
r0.5878213179355912 /
r1.857512855331091e-05 .
r3.5e-06 ,
b10101 +
1&
#1040000
0&
#1045000
1;
b101110101110010011010101010 =
b10100001010110 <
0)
1&
#1050000
0&
#1055000
0;
b100010011101110111001000110 :
b110110000100100001000000111 9
1!
b1011101011100 "
b1011101011100 8
1&
#1060000
0&
#1065000
0!
1&
#1070000
0&
#1075000
b1010110100110110 '
b1010110100110110 1
1)
b11111111111111111010110100110110 -
r-1.61708662112558 0
r-0.9510709473343554 /
r-0.8660156737912248 .
r3.666666666666667e-06 ,
b10110 +
1&
#1080000
0&
#1085000
1;
b11110010111001001110000000000101 =
b1010110100110110 <
0)
1&
#1090000
0&
#1095000
0;
b11111000001011111111010011010000 :
b11111000100001010011100101001111 9
1!
b1100101110010011 "
b1100101110010011 8
1&
#1100000
0&
#1105000
0!
1&
#1110000
0&
#1115000
b111010010111 '
b111010010111 1
1)
b111010010111 -
r0.2850058513821867 0
r0.9510414270816137 /
r-0.8660355756994269 .
r3.833333333333334e-06 ,
b10111 +
1&
#1120000
0&
#1125000
1;
b11111100000001010110101010011010 =
b111010010111 <
0)
1&
#1130000
0&
#1135000
0;
b111001010001111110101101001 :
b100000010000000011100010110 9
1!
b1111000000010101 "
b1111000000010101 8
1&
#1140000
0&
#1145000
0!
1&
#1150000
0&
#1155000
b1110110000100110 '
b1110110000100110 1
1)
b11111111111111111110110000100110 -
r-0.3877652617025668 0
r-0.5877440329842215 /
r-2.122871834525227e-05 .
r4e-06 ,
b11000 +
1&
#1160000
0&
#1165000
1;
b11111111010001001010000101000100 =
b1110110000100110 <
0)
1&
#1170000
0&
#1175000
0;
b11111011111010010000010011011010 :
b100101110010111000100101 9
1!
b1111110100010010 "
b1111110100010010 8
1&
#1180000
0&
#1185000
0!
1&
#1190000
0&
#1195000
b11011010010011 '
b11011010010011 1
1)
b11011010010011 -
r1.065961275152721 0
r-5.307179583865037e-05 /
r0.8660143469485599 .
r4.166666666666667e-06 ,
b11001 +
1&
#1200000
0&
#1205000
1;
b1101101011110111000110111100 =
b11011010010011 <
0)
1&
#1210000
0&
#1215000
0;
b100000101101010010100101 :
b11111011110110001011011010011100 9
1!
b11011010111101 "
b11011010111101 8
1&
#1220000
0&
#1225000
0!
1&
#1230000
0&
#1235000
b101010010101100 '
b101010010101100 1
1)
b101010010101100 -
r1.65386680726581 0
r0.5878299048212871 /
r0.866036902444523 .
r4.333333333333333e-06 ,
b11010 +
1&
#1240000
0&
#1245000
1;
b10000001010011011111111011000 =
b101010010101100 <
0)
1&
#1250000
0&
#1255000
0;
b101011101000101111111100000 :
b1000010010001110010011110111 9
1!
b100000010100110 "
b100000010100110 8
1&
#1260000
0&
#1265000
0!
1&
#1270000
0&
#1275000
b1101100110001101 '
b1101100110001101 1
1)
b11111111111111111101100110001101 -
r-0.7510503445185447 0
r-0.9510742268266817 /
r2.388230813704415e-05 .
r4.5e-06 ,
b11011 +
1&
#1280000
0&
#1285000
1;
b11111111000011110001111100000000 =
b1101100110001101 <
0)
1&
#1290000
0&
#1295000
0;
b11110111101000111101011011110001 :
b11110111111111010100100100110011 9
1!
b1111110000111100 "
b1111110000111100 8
1&
#1300000
0&
#1305000
0!
1&
#1310000
0&
#1315000
b111010010111 '
b111010010111 1
1)
b111010010111 -
r0.2850251264179815 0
r0.9510381465177769 /
r-0.8660130200997953 .
r4.666666666666666e-06 ,
b11100 +
1&
#1320000
0&
#1325000
1;
b11111011011111010111101001111110 =
b111010010111 <
0)
1&
#1330000
0&
#1335000
0;
b111101001100000110010101001 :
b100010011110001101110010111 9
1!
b1110110111110101 "
b1110110111110101 8
1&
#1340000
0&
#1345000
0!
1&
#1350000
0&
#1355000
b1011111111010000 '
b1011111111010000 1
1)
b11111111111111111011111111010000 -
r-1.253773674619822 0
r-0.5877354454363025 /
r-0.8660382291835191 .
r4.833333333333333e-06 ,
b11101 +
1&
#1360000
0&
#1365000
1;
b11110100111010000101011100100111 =
b1011111111010000 <
0)
1&
#1370000
0&
#1375000
0;
b11111010110011001000101001110110 :
b11111111111101001000111111010110 9
1!
b1101001110100001 "
b1101001110100001 8
1&
#1380000
0&
#1385000
0!
1&
#1390000
0&
#1395000
b101000111100 '
b101000111100 1
1)
b101000111100 -
r0.1999097779470845 0
r-6.368615499038378e-05 /
r-2.653589792511515e-05 .
r5e-06 ,
b11110 +
1&
#1400000
0&
#1405000
1;
b10011010010011011101100010 =
b101000111100 <
0)
1&
#1410000
0&
#1415000
0;
b1111010100100111100100 :
b11111011000001111000110100111110 9
1!
b100110100100 "
b100110100100 8
1&
#1420000
0&
#1425000
0!
1&
#1430000
0&
#1435000
b101010010101100 '
b101010010101100 1
1)
b101010010101100 -
r1.65385018488569 0
r0.5878384916407553 /
r0.8660116932449343 .
r5.166666666666667e-06 ,
b11111 +
1&
#1440000
0&
#1445000
1;
b1111010110001001011001111010 =
b101010010101100 <
0)
1&
#1450000
0&
#1455000
0;
b110001101001000111111001000 :
b1001010001111110100110000010 9
1!
b11110101100010 "
b11110101100010 8
1&
#1460000
0&
#1465000
0!
1&
#1470000
0&
#1475000
b10111100010 '
b10111100010 1
1)
b10111100010 -
r0.1149620497045596 0
r-0.9510775062118557 /
r0.8660395559164152 .
r5.333333333333334e-06 ,
b100000 +
1&
#1480000
0&
#1485000
1;
b1010101100010100010010111100 =
b10111100010 <
0)
1&
#1490000
0&
#1495000
0;
b11110111100101000100110101111000 :
b11110111111000101000001011111111 9
1!
b10101011000101 "
b10101011000101 8
1&
#1500000
0&
#1505000
0!
1&
#1510000
0&
#1515000
b11101011101110 '
b11101011101110 1
1)
b11101011101110 -
r1.151064055334518 0
r0.9510348658467982 /
r2.918948772010472e-05 .
r5.5e-06 ,
b100001 +
1&
#1520000
0&
#1525000
1;
b110000001100101000001010101 =
b11101011101110 <
0)
1&
#1530000
0&
#1535000
0;
b1000100110011001111000001100 :
b101000110100010010011010111 9
1!
b1100000011001 "
b1100000011001 8
1&
#1540000
0&
#1545000
0!
1&
#1550000
0&
#1555000
b1011111111010000 '
b1011111111010000 1
1)
b11111111111111111011111111010000 -
r-1.253737224206142 0
r-0.5877268578221665 /
r-0.8660103663839753 .
r5.666666666666667e-06 ,
b100010 +
1&
#1560000
0&
#1565000
1;
b11110101101100110110000001100111 =
b1011111111010000 <
0)
1&
#1570000
0&
#1575000
0;
b11111010000100011101111011111110 :
b11111111101011001110001100110101 9
1!
b1101011011001101 "
b1101011011001101 8
1&
#1580000
0&
#1585000
0!
1&
#1590000
0&
#1595000
b1101110111100110 '
b1101110111100110 1
1)
b11111111111111111101110111100110 -
r-0.6661151831573676 0
r-7.430051414915286e-05 /
r-0.8660408826432184 .
r5.833333333333333e-06 ,
b100011 +
1&
#1600000
0&
#1605000
1;
b11110111011111100010110000100011 =
b1101110111100110 <
0)
1&
#1610000
0&
#1615000
0;
b11111111101001000001001110111110 :
b11111010000010101110001000001000 9
1!
b1101110111111000 "
b1101110111111000 8
1&
#1620000
0&
#1625000
0!
1&
#1630000
0&
#1635000
b10100001010101 '
b10100001010101 1
1)
b10100001010101 -
r0.7878152353164837 0
r0.587847078393995 /
r-3.184307751133603e-05 .
r6e-06 ,
b100100 +
1&
#1640000
0&
#1645000
1;
b11101110000100111100111001 =
b10100001010101 <
0)
1&
#1650000
0&
#1655000
0;
b110010000011100011110010111 :
b1001100001011100011110011010 9
1!
b111011100001 "
b111011100001 8
1&
#1660000
0&
#1665000
0!
1&
#1670000
0&
#1675000
b10111100010 '
b10111100010 1
1)
b10111100010 -
r0.1149282540270371 0
r-0.9510807854898813 /
r0.8660090395169183 .
r6.166666666666666e-06 ,
b100101 +
1&
#1680000
0&
#1685000
1;
b1010111011110010001011010100 =
b10111100010 <
0)
1&
#1690000
0&
#1695000
0;
b11110111010110111000010100100010 :
b11110111100011111101011001001001 9
1!
b10101110111100 "
b10101110111100 8
1&
#1700000
0&
#1705000
0!
1&
#1710000
0&
#1715000
b110011101000101 '
b110011101000101 1
1)
b110011101000101 -
r2.017073794432592 0
r0.9510315850686717 /
r0.8660422093639197 .
r6.333333333333333e-06 ,
b100110 +
1&
#1720000
0&
#1725000
1;
b10000010101110011111110101010 =
b110011101000101 <
0)
1&
#1730000
0&
#1735000
0;
b1001110000001110100100001001 :
b110000100110100100100111101 9
1!
b100000101011100 "
b100000101011100 8
1&
#1740000
0&
#1745000
0!
1&
#1750000
0&
#1755000
b1110110000100111 '
b1110110000100111 1
1)
b11111111111111111110110000100111 -
r-0.3876837734744937 0
r-0.5877182701418031 /
r3.449666730944856e-05 .
r6.5e-06 ,
b100111 +
1&
#1760000
0&
#1765000
1;
b1010100000010000011011000 =
b1110110000100111 <
0)
1&
#1770000
0&
#1775000
0;
b11111010000001111101111100011011 :
b101000100101011110 9
1!
b10101000000 "
b10101000000 8
1&
#1780000
0&
#1785000
0!
1&
#1790000
0&
#1795000
b1101110111100110 '
b1101110111100110 1
1)
b11111111111111111101110111100110 -
r-0.6660926275170485 0
r-8.491487328534007e-05 /
r-0.8660077126437632 .
r6.666666666666667e-06 ,
b101000 +
1&
#1800000
0&
#1805000
1;
b11110111110100111101001001001100 =
b1101110111100110 <
0)
1&
#1810000
0&
#1815000
0;
b11111111010101010011100110101000 :
b11111001011110111011100010000000 9
1!
b1101111101001111 "
b1101111101001111 8
1&
#1820000
0&
#1825000
0!
1&
#1830000
0&
#1835000
b1111110000000000 '
b1111110000000000 1
1)
b11111111111111111111110000000000 -
r-0.07818787099751434 0
r0.587855665081005 /
r-0.8660435360785194 .
r6.833333333333334e-06 ,
b101001 +
1&
#1840000
0&
#1845000
1;
b11111000100001100000010010000000 =
b1111110000000000 <
0)
1&
#1850000
0&
#1855000
0;
b101111010100101001110010000 :
b1001011000111111011001100000 9
1!
b1110001000011000 "
b1110001000011000 8
1&
#1860000
0&
#1865000
0!
1&
#1870000
0&
#1875000
b1101100110001100 '
b1101100110001100 1
1)
b11111111111111111101100110001100 -
r-0.7511212149178494 0
r-0.9510840646607492 /
r-3.715025710021274e-05 .
r7e-06 ,
b101010 +
1&
#1880000
0&
#1885000
1;
b1010011111001011111100 =
b1101100110001100 <
0)
1&
#1890000
0&
#1895000
0;
b11110110100111111001100001100110 :
b11110110101110111100001100011111 9
1!
b10100111 "
b10100111 8
1&
#1900000
0&
#1905000
0!
1&
#1910000
0&
#1915000
b110011101000100 '
b110011101000100 1
1)
b110011101000100 -
r2.017034689947907 0
r0.9510283041833976 /
r0.8660063857645102 .
r7.166666666666667e-06 ,
b101011 +
1&
#1920000
0&
#1925000
1;
b1111100000101110111100010011 =
b110011101000100 <
0)
1&
#1930000
0&
#1935000
0;
b1010100000111101100010010110 :
b110101000001001010001110001 9
1!
b11111000001011 "
b11111000001011 8
1&
#1940000
0&
#1945000
0!
1&
#1950000
0&
#1955000
b1100001111101 '
b1100001111101 1
1)
b1100001111101 -
r0.4783351803917917 0
r-0.5877096823952359 /
r0.8660448627870276 .
r7.333333333333333e-06 ,
b101100 +
1&
#1960000
0&
#1965000
1;
b1100100000001100101010101010 =
b1100001111101 <
0)
1&
#1970000
0&
#1975000
0;
b11111010011000001111000110101011 :
b100110110010011111000100 9
1!
b11001000000011 "
b11001000000011 8
1&
#1980000
0&
#1985000
0!
1&
#1990000
0&
#1995000
b101000111100 '
b101000111100 1
1)
b101000111100 -
r0.1999442746144717 0
r-9.552923241196036e-05 /
r3.98038468836099e-05 .
r7.5e-06 ,
b101101 +
1&
#2000000
0&
#2005000
1;
b11000011111100111101010000 =
b101000111100 <
0)
1&
#2010000
0&
#2015000
0;
b11111111101000111111001111100110 :
b11111001100110010000000110000010 9
1!
b110000111111 "
b110000111111 8
1&
#2020000
0&
#2025000
0!
1&
#2030000
0&
#2035000
b1111110000000000 '
b1111110000000000 1
1)
b11111111111111111111110000000000 -
r-0.07814080717737448 0
r0.5878642517017846 /
r-0.866005058879159 .
r7.666666666666667e-06 ,
b101110 +
1&
#2040000
0&
#2045000
1;
b11111000101000110100110110000010 =
b1111110000000000 <
0)
1&
#2050000
0&
#2055000
0;
b101110011110110110111101110 :
b1001100001010100010001011111 9
1!
b1110001010001101 "
b1110001010001101 8
1&
#2060000
0&
#2065000
0!
1&
#2070000
0&
#2075000
b1010110100110101 '
b1010110100110101 1
1)
b11111111111111111010110100110101 -
r-1.617133533213898 0
r-0.9510873437244638 /
r-0.8660461894894342 .
r7.833333333333333e-06 ,
b101111 +
1&
#2080000
0&
#2085000
1;
b11110101101001111010010011110000 =
b1010110100110101 <
0)
1&
#2090000
0&
#2095000
0;
b11110101101001011101001000000101 :
b11110101101110111100111101010011 9
1!
b1101011010011110 "
b1101011010011110 8
1&
#2100000
0&
#2105000
0!
1&
#2110000
0&
#2115000
b11101011101101 '
b11101011101101 1
1)
b11101011101101 -
r1.150982565754295 0
r0.9510250231909761 /
r-4.245743668093764e-05 .
r8e-06 ,
b110000 +
1&
#2120000
0&
#2125000
1;
b11110111110101111100111100 =
b11101011101101 <
0)
1&
#2130000
0&
#2135000
0;
b1010100101000000110101110111 :
b110100000101110111001010101 9
1!
b111101111101 "
b111101111101 8
1&
#2140000
0&
#2145000
0!
1&
#2150000
0&
#2155000
b1100001111101 '
b1100001111101 1
1)
b1100001111101 -
r0.4783026374052629 0
r-0.5877010945824434 /
r0.8660037319877063 .
r8.166666666666666e-06 ,
b110001 +
1&
#2160000
0&
#2165000
1;
b1100011000110010010010001110 =
b1100001111101 <
0)
1&
#2170000
0&
#2175000
0;
b11111010011111000100110100000001 :
b110110011000111110101010 9
1!
b11000110001100 "
b11000110001100 8
1&
#2180000
0&
#2185000
0!
1&
#2190000
0&
#2195000
b11011010010011 '
b11011010010011 1
1)
b11011010010011 -
r1.065941372594215 0
r-0.0001061435915278179 /
r0.8660475161857425 .
r8.333333333333334e-06 ,
b110010 +
1&
#2200000
0&
#2205000
1;
b1101111100011101001101000001 =
b11011010010011 <
0)
1&
#2210000
0&
#2215000
0;
b10001011010111000100001 :
b11111010000001001011100111100101 9
1!
b11011111000111 "
b11011111000111 8
1&
#2220000
0&
#2225000
0!
1&
#2230000
0&
#2235000
b10100001010111 '
b10100001010111 1
1)
b10100001010111 -
r0.787917949282815 0
r0.5878728382563441 /
r4.511102647086098e-05 .
r8.5e-06 ,
b110011 +
1&
#2240000
0&
#2245000
1;
b11101100101010000111110000 =
b10100001010111 <
0)
1&
#2250000
0&
#2255000
0;
b110010001111000110000000111 :
b1010001100010001011010101000 9
1!
b111011001010 "
b111011001010 8
1&
#2260000
0&
#2265000
0!
1&
#2270000
0&
#2275000
b1010110100110110 '
b1010110100110110 1
1)
b11111111111111111010110100110110 -
r-1.617093027771183 0
r-0.9510906226810243 /
r-0.8660024050901592 .
r8.666666666666666e-06 ,
b110100 +
1&
#2280000
0&
#2285000
1;
b11110110010100111011010010100110 =
b1010110100110110 <
0)
1&
#2290000
0&
#2295000
0;
b11110101000001111110010110010010 :
b11110101001010010011011010111111 9
1!
b1101100101001110 "
b1101100101001110 8
1&
#2300000
0&
#2305000
0!
1&
#2310000
0&
#2315000
b111010010111 '
b111010010111 1
1)
b111010010111 -
r0.2849728992154555 0
r0.9510217420914079 /
r-0.8660488428759524 .
r8.833333333333334e-06 ,
b110101 +
1&
#2320000
0&
#2325000
1;
b11111000101010010110100000001010 =
b111010010111 <
0)
1&
#2330000
0&
#2335000
0;
b1010001111111100111011001001 :
b110000101110111101000101000 9
1!
b1110001010100101 "
b1110001010100101 8
1&
#2340000
0&
#2345000
0!
1&
#2350000
0&
#2355000
b1110110000100110 '
b1110110000100110 1
1)
b11111111111111111110110000100110 -
r-0.3877402713197211 0
r-0.5876925067034606 /
r-4.776461626046667e-05 .
r9e-06 ,
b110110 +
1&
#2360000
0&
#2365000
1;
b1010101000001010001010110 =
b1110110000100110 <
0)
1&
#2370000
0&
#2375000
0;
b11111010000000111111010000001110 :
b11110101101010110001011 9
1!
b10101010000 "
b10101010000 8
1&
#2380000
0&
#2385000
0!
1&
#2390000
0&
#2395000
b11011010010010 '
b11011010010010 1
1)
b11011010010010 -
r1.065884320235882 0
r-0.0001167579506317168 /
r0.8660010781865141 .
r9.166666666666666e-06 ,
b110111 +
1&
#2400000
0&
#2405000
1;
b1101100100101101101110110101 =
b11011010010010 <
0)
1&
#2410000
0&
#2415000
0;
b100111001100110001001100 :
b11111010000111111000010010000011 9
1!
b11011001001011 "
b11011001001011 8
1&
#2420000
0&
#2425000
0!
1&
#2430000
0&
#2435000
b101010010101101 '
b101010010101101 1
1)
b101010010101101 -
r1.65393159430475 0
r0.5878814247446826 /
r0.8660501695600675 .
r9.333333333333333e-06 ,
b111000 +
1&
#2440000
0&
#2445000
1;
b1110011100001100101100101100 =
b101010010101101 <
0)
1&
#2450000
0&
#2455000
0;
b111000010011110100010011011 :
b1011000011111011001011001010 9
1!
b11100111000011 "
b11100111000011 8
1&
#2460000
0&
#2465000
0!
1&
#2470000
0&
#2475000
b1101100110001101 '
b1101100110001101 1
1)
b11111111111111111101100110001101 -
r-0.7510434833243809 0
r-0.9510939015304306 /
r5.041820604973603e-05 .
r9.500000000000001e-06 ,
b111001 +
1&
#2480000
0&
#2485000
1;
b1110101011110110011010011 =
b1101100110001101 <
0)
1&
#2490000
0&
#2495000
0;
b11110101000101100100001111110011 :
b11110101010000110001010101111101 9
1!
b11101010111 "
b11101010111 8
1&
#2500000
0&
#2505000
0!
1&
#2510000
0&
#2515000
b111010010111 '
b111010010111 1
1)
b111010010111 -
r0.285018709607922 0
r0.951018460884693 /
r-0.865999751276771 .
r9.666666666666667e-06 ,
b111010 +
1&
#2520000
0&
#2525000
1;
b11111000110000110100011011001000 =
b111010010111 <
0)
1&
#2530000
0&
#2535000
0;
b1010001001111110011000111001 :
b101111111010111100001010001 9
1!
b1110001100001101 "
b1110001100001101 8
1&
#2540000
0&
#2545000
0!
1&
#2550000
0&
